Bar charts - diamonds
…
# 2
logicalInd <- diamonds$price < 500
q12_working <- diamonds[logicalInd,]
strInd <- grep(pattern="Premium",x=q12_working$cut)
q12 <- q12_working[strInd,]
q12

## # A tibble: 215 x 10
##    carat cut     color clarity depth table price     x     y     z
##    <dbl> <ord>   <ord> <ord>   <dbl> <dbl> <int> <dbl> <dbl> <dbl>
##  1 0.21  Premium E     SI1      59.8    61   326  3.89  3.84  2.31
##  2 0.290 Premium I     VS2      62.4    58   334  4.2   4.23  2.63
##  3 0.22  Premium F     SI1      60.4    61   342  3.88  3.84  2.33
##  4 0.2   Premium E     SI2      60.2    62   345  3.79  3.75  2.27
##  5 0.32  Premium E     I1       60.9    58   345  4.38  4.42  2.68
##  6 0.24  Premium I     VS1      62.5    57   355  3.97  3.94  2.47
##  7 0.290 Premium F     SI1      62.4    58   403  4.24  4.26  2.65
##  8 0.22  Premium E     VS2      61.6    58   404  3.93  3.89  2.41
##  9 0.22  Premium D     VS2      59.3    62   404  3.91  3.88  2.31
## 10 0.3   Premium J     SI2      59.3    61   405  4.43  4.38  2.61
## # ... with 205 more rows
…
